1|Марсель|32|false
2|Максим|22|false
3|Виктор|25|false
4|Игорь|25|false
5|Валера|24|false
6|Ирина|31|false
7|Вика|18|false
8|Маша|45|false
9|Даша|27|false
10|Олег|22|false
11|Кирилл|25|false
12|Валерия|25|false
13|Дима|24|false
14|Оксана|31|false
15|Олеся|18|false
16|Света|45|false